
G21
G90
G94
F60.00
G00 Z5.5000
M03
G4 P1
G00 X0.9550Y26.1125
G01 Z9.0000
G01 X0.9550Y3.4950
G01 X31.1925Y3.4950
G00 Z5.5000
G00 X32.9425Y3.4950
G01 Z9.0000
G01 X63.1800Y3.4950
G01 X63.1800Y26.1125
G00 Z5.5000
G00 X63.1800Y27.8625
G01 Z9.0000
G01 X63.1800Y50.4800
G01 X32.9425Y50.4800
G00 Z5.5000
G00 X31.1925Y50.4800
G01 Z9.0000
G01 X0.9550Y50.4800
G01 X0.9550Y27.8625
G00 Z5.5000
G00 Z5.5000
G00 X0Y0
M05
x5y190z0